{
  "name": "embedded-catalog",
  "description": "An embedded catalog.",
  "version": "0.1.0",
  "engines": {
    "node": ">= 11.0",
    "npm": ">= 6.7"
  },
  "dependencies": {},
  "devDependencies": {
    "@babel/cli": ">= 7.0",
    "@babel/core": ">= 7.0",
    "@babel/preset-env": ">= 7.0",
    "eslint": ">= 4.12",
    "ethron": "*"
  }
}
